{
  "development": {
    "username": "postgres",
    "password": "123456",
    "database": "urma",
    "host": "localhost",
    "dialect": "postgres",
    "logging": true
  },
  "test": {
    "username": "postgres",
    "password": "root",
    "database": "urma",
    "host": "localhost",
    "dialect": "postgres"
  },
  "production": {
    "use_env_variable": "DATABASE_URL"
  }
}
